info face="moonhouse" size=-48 bold=0 italic=0 charset="" unicode=1 stretchH=100 smooth=1 aa=1 padding=0,0,0,0 spacing=1,1 outline=0
common lineHeight=42 base=34 scaleW=512 scaleH=512 pages=1 packed=0 alphaChnl=1 redChnl=0 greenChnl=0 blueChnl=0
page id=0 file="moonhouse48_0.tga"
chars count=94
char id=32   x=181   y=215   width=24    height=42    xoffset=0     yoffset=0     xadvance=24    page=0  chnl=15
char id=34   x=491   y=129   width=19    height=42    xoffset=0     yoffset=0     xadvance=19    page=0  chnl=15
char id=35   x=32    y=215   width=30    height=42    xoffset=0     yoffset=0     xadvance=30    page=0  chnl=15
char id=36   x=0     y=43    width=43    height=42    xoffset=0     yoffset=0     xadvance=43    page=0  chnl=15
char id=37   x=305   y=129   width=37    height=42    xoffset=0     yoffset=0     xadvance=37    page=0  chnl=15
char id=38   x=42    y=86    width=41    height=42    xoffset=0     yoffset=0     xadvance=41    page=0  chnl=15
char id=39   x=425   y=215   width=12    height=42    xoffset=0     yoffset=0     xadvance=12    page=0  chnl=15
char id=40   x=412   y=215   width=12    height=42    xoffset=0     yoffset=0     xadvance=12    page=0  chnl=15
char id=41   x=438   y=215   width=11    height=42    xoffset=0     yoffset=0     xadvance=11    page=0  chnl=15
char id=42   x=321   y=215   width=18    height=42    xoffset=0     yoffset=0     xadvance=18    page=0  chnl=15
char id=43   x=253   y=215   width=22    height=42    xoffset=0     yoffset=0     xadvance=22    page=0  chnl=15
char id=44   x=461   y=215   width=9     height=42    xoffset=0     yoffset=0     xadvance=9     page=0  chnl=15
char id=45   x=230   y=215   width=22    height=42    xoffset=0     yoffset=0     xadvance=22    page=0  chnl=15
char id=46   x=0     y=258   width=9     height=42    xoffset=0     yoffset=0     xadvance=9     page=0  chnl=15
char id=47   x=115   y=129   width=37    height=42    xoffset=0     yoffset=0     xadvance=37    page=0  chnl=15
char id=48   x=165   y=0     width=48    height=42    xoffset=0     yoffset=0     xadvance=48    page=0  chnl=15
char id=49   x=371   y=215   width=13    height=42    xoffset=0     yoffset=0     xadvance=13    page=0  chnl=15
char id=50   x=303   y=43    width=41    height=42    xoffset=0     yoffset=0     xadvance=41    page=0  chnl=15
char id=51   x=260   y=43    width=42    height=42    xoffset=0     yoffset=0     xadvance=42    page=0  chnl=15
char id=52   x=217   y=43    width=42    height=42    xoffset=0     yoffset=0     xadvance=42    page=0  chnl=15
char id=53   x=174   y=43    width=42    height=42    xoffset=0     yoffset=0     xadvance=42    page=0  chnl=15
char id=54   x=407   y=0     width=44    height=42    xoffset=0     yoffset=0     xadvance=44    page=0  chnl=15
char id=55   x=267   y=129   width=37    height=42    xoffset=0     yoffset=0     xadvance=37    page=0  chnl=15
char id=56   x=375   y=86    width=40    height=42    xoffset=0     yoffset=0     xadvance=40    page=0  chnl=15
char id=57   x=452   y=0     width=44    height=42    xoffset=0     yoffset=0     xadvance=44    page=0  chnl=15
char id=58   x=501   y=215   width=9     height=42    xoffset=0     yoffset=0     xadvance=9     page=0  chnl=15
char id=59   x=491   y=215   width=9     height=42    xoffset=0     yoffset=0     xadvance=9     page=0  chnl=15
char id=60   x=94    y=215   width=30    height=42    xoffset=0     yoffset=0     xadvance=30    page=0  chnl=15
char id=61   x=276   y=215   width=22    height=42    xoffset=0     yoffset=0     xadvance=22    page=0  chnl=15
char id=62   x=63    y=215   width=30    height=42    xoffset=0     yoffset=0     xadvance=30    page=0  chnl=15
char id=63   x=285   y=172   width=34    height=42    xoffset=0     yoffset=0     xadvance=34    page=0  chnl=15
char id=64   x=88    y=43    width=42    height=42    xoffset=0     yoffset=0     xadvance=42    page=0  chnl=15
char id=65   x=334   y=86    width=40    height=42    xoffset=0     yoffset=0     xadvance=40    page=0  chnl=15
char id=66   x=345   y=43    width=41    height=42    xoffset=0     yoffset=0     xadvance=41    page=0  chnl=15
char id=67   x=387   y=43    width=41    height=42    xoffset=0     yoffset=0     xadvance=41    page=0  chnl=15
char id=68   x=429   y=43    width=41    height=42    xoffset=0     yoffset=0     xadvance=41    page=0  chnl=15
char id=69   x=0     y=86    width=41    height=42    xoffset=0     yoffset=0     xadvance=41    page=0  chnl=15
char id=70   x=320   y=172   width=34    height=42    xoffset=0     yoffset=0     xadvance=34    page=0  chnl=15
char id=71   x=44    y=43    width=43    height=42    xoffset=0     yoffset=0     xadvance=43    page=0  chnl=15
char id=72   x=84    y=86    width=41    height=42    xoffset=0     yoffset=0     xadvance=41    page=0  chnl=15
char id=73   x=471   y=215   width=9     height=42    xoffset=0     yoffset=0     xadvance=9     page=0  chnl=15
char id=74   x=206   y=215   width=23    height=42    xoffset=0     yoffset=0     xadvance=23    page=0  chnl=15
char id=75   x=293   y=86    width=40    height=42    xoffset=0     yoffset=0     xadvance=40    page=0  chnl=15
char id=76   x=0     y=172   width=35    height=42    xoffset=0     yoffset=0     xadvance=35    page=0  chnl=15
char id=77   x=62    y=0     width=51    height=42    xoffset=0     yoffset=0     xadvance=51    page=0  chnl=15
char id=78   x=456   y=86    width=39    height=42    xoffset=0     yoffset=0     xadvance=39    page=0  chnl=15
char id=79   x=312   y=0     width=47    height=42    xoffset=0     yoffset=0     xadvance=47    page=0  chnl=15
char id=80   x=168   y=86    width=41    height=42    xoffset=0     yoffset=0     xadvance=41    page=0  chnl=15
char id=81   x=214   y=0     width=48    height=42    xoffset=0     yoffset=0     xadvance=48    page=0  chnl=15
char id=82   x=252   y=86    width=40    height=42    xoffset=0     yoffset=0     xadvance=40    page=0  chnl=15
char id=83   x=416   y=86    width=39    height=42    xoffset=0     yoffset=0     xadvance=39    page=0  chnl=15
char id=84   x=343   y=129   width=36    height=42    xoffset=0     yoffset=0     xadvance=36    page=0  chnl=15
char id=85   x=471   y=43    width=40    height=42    xoffset=0     yoffset=0     xadvance=40    page=0  chnl=15
char id=86   x=126   y=86    width=41    height=42    xoffset=0     yoffset=0     xadvance=41    page=0  chnl=15
char id=87   x=0     y=0     width=61    height=42    xoffset=0     yoffset=0     xadvance=61    page=0  chnl=15
char id=88   x=360   y=0     width=46    height=42    xoffset=0     yoffset=0     xadvance=46    page=0  chnl=15
char id=89   x=131   y=43    width=42    height=42    xoffset=0     yoffset=0     xadvance=42    page=0  chnl=15
char id=90   x=210   y=86    width=41    height=42    xoffset=0     yoffset=0     xadvance=41    page=0  chnl=15
char id=91   x=340   y=215   width=16    height=42    xoffset=0     yoffset=0     xadvance=16    page=0  chnl=15
char id=92   x=153   y=129   width=37    height=42    xoffset=0     yoffset=0     xadvance=37    page=0  chnl=15
char id=93   x=496   y=86    width=15    height=42    xoffset=0     yoffset=0     xadvance=15    page=0  chnl=15
char id=94   x=125   y=215   width=29    height=42    xoffset=0     yoffset=0     xadvance=29    page=0  chnl=15
char id=95   x=388   y=172   width=31    height=42    xoffset=0     yoffset=0     xadvance=31    page=0  chnl=15
char id=96   x=399   y=215   width=12    height=42    xoffset=0     yoffset=0     xadvance=12    page=0  chnl=15
char id=97   x=380   y=129   width=36    height=42    xoffset=0     yoffset=0     xadvance=36    page=0  chnl=15
char id=98   x=72    y=172   width=35    height=42    xoffset=0     yoffset=0     xadvance=35    page=0  chnl=15
char id=99   x=215   y=172   width=34    height=42    xoffset=0     yoffset=0     xadvance=34    page=0  chnl=15
char id=100  x=77    y=129   width=37    height=42    xoffset=0     yoffset=0     xadvance=37    page=0  chnl=15
char id=101  x=250   y=172   width=34    height=42    xoffset=0     yoffset=0     xadvance=34    page=0  chnl=15
char id=102  x=355   y=172   width=32    height=42    xoffset=0     yoffset=0     xadvance=32    page=0  chnl=15
char id=103  x=39    y=129   width=37    height=42    xoffset=0     yoffset=0     xadvance=37    page=0  chnl=15
char id=104  x=144   y=172   width=35    height=42    xoffset=0     yoffset=0     xadvance=35    page=0  chnl=15
char id=105  x=481   y=215   width=9     height=42    xoffset=0     yoffset=0     xadvance=9     page=0  chnl=15
char id=106  x=357   y=215   width=13    height=42    xoffset=0     yoffset=0     xadvance=13    page=0  chnl=15
char id=107  x=420   y=172   width=31    height=42    xoffset=0     yoffset=0     xadvance=31    page=0  chnl=15
char id=108  x=450   y=215   width=10    height=42    xoffset=0     yoffset=0     xadvance=10    page=0  chnl=15
char id=109  x=114   y=0     width=50    height=42    xoffset=0     yoffset=0     xadvance=50    page=0  chnl=15
char id=110  x=108   y=172   width=35    height=42    xoffset=0     yoffset=0     xadvance=35    page=0  chnl=15
char id=111  x=191   y=129   width=37    height=42    xoffset=0     yoffset=0     xadvance=37    page=0  chnl=15
char id=112  x=36    y=172   width=35    height=42    xoffset=0     yoffset=0     xadvance=35    page=0  chnl=15
char id=113  x=417   y=129   width=36    height=42    xoffset=0     yoffset=0     xadvance=36    page=0  chnl=15
char id=114  x=299   y=215   width=21    height=42    xoffset=0     yoffset=0     xadvance=21    page=0  chnl=15
char id=115  x=180   y=172   width=34    height=42    xoffset=0     yoffset=0     xadvance=34    page=0  chnl=15
char id=116  x=155   y=215   width=25    height=42    xoffset=0     yoffset=0     xadvance=25    page=0  chnl=15
char id=117  x=452   y=172   width=31    height=42    xoffset=0     yoffset=0     xadvance=31    page=0  chnl=15
char id=118  x=229   y=129   width=37    height=42    xoffset=0     yoffset=0     xadvance=37    page=0  chnl=15
char id=119  x=263   y=0     width=48    height=42    xoffset=0     yoffset=0     xadvance=48    page=0  chnl=15
char id=120  x=0     y=129   width=38    height=42    xoffset=0     yoffset=0     xadvance=38    page=0  chnl=15
char id=121  x=454   y=129   width=36    height=42    xoffset=0     yoffset=0     xadvance=36    page=0  chnl=15
char id=122  x=0     y=215   width=31    height=42    xoffset=0     yoffset=0     xadvance=31    page=0  chnl=15
char id=123  x=385   y=215   width=13    height=42    xoffset=0     yoffset=0     xadvance=13    page=0  chnl=15
char id=124  x=10    y=258   width=6     height=42    xoffset=0     yoffset=0     xadvance=6     page=0  chnl=15
char id=125  x=497   y=0     width=14    height=42    xoffset=0     yoffset=0     xadvance=14    page=0  chnl=15
char id=126  x=484   y=172   width=27    height=42    xoffset=0     yoffset=0     xadvance=27    page=0  chnl=15
kernings count=227
kerning first=65  second=86  amount=-3  
kerning first=65  second=87  amount=-3  
kerning first=65  second=89  amount=-5  
kerning first=66  second=86  amount=-2  
kerning first=66  second=87  amount=-2  
kerning first=66  second=88  amount=-3  
kerning first=66  second=89  amount=-3  
kerning first=68  second=86  amount=-2  
kerning first=68  second=87  amount=-3  
kerning first=68  second=88  amount=-3  
kerning first=68  second=89  amount=-4  
kerning first=71  second=86  amount=-1  
kerning first=71  second=87  amount=-2  
kerning first=75  second=79  amount=-4  
kerning first=75  second=81  amount=-3  
kerning first=75  second=99  amount=-3  
kerning first=75  second=100 amount=-2  
kerning first=75  second=111 amount=-3  
kerning first=75  second=113 amount=-2  
kerning first=75  second=119 amount=-4  
kerning first=75  second=121 amount=-5  
kerning first=76  second=79  amount=-3  
kerning first=76  second=81  amount=-3  
kerning first=79  second=106 amount=-2  
kerning first=83  second=74  amount=-8  
kerning first=83  second=83  amount=-8  
kerning first=83  second=97  amount=-5  
kerning first=83  second=99  amount=-6  
kerning first=83  second=100 amount=-5  
kerning first=83  second=101 amount=-5  
kerning first=83  second=102 amount=-5  
kerning first=83  second=103 amount=-5  
kerning first=83  second=106 amount=-3  
kerning first=83  second=109 amount=-5  
kerning first=83  second=110 amount=-5  
kerning first=83  second=111 amount=-6  
kerning first=83  second=112 amount=-5  
kerning first=83  second=113 amount=-5  
kerning first=83  second=114 amount=-4  
kerning first=83  second=115 amount=-7  
kerning first=83  second=117 amount=-3  
kerning first=83  second=118 amount=-5  
kerning first=83  second=119 amount=-4  
kerning first=83  second=120 amount=-4  
kerning first=83  second=121 amount=-4  
kerning first=83  second=122 amount=-4  
kerning first=84  second=97  amount=-5  
kerning first=84  second=99  amount=-5  
kerning first=84  second=100 amount=-5  
kerning first=84  second=101 amount=-6  
kerning first=84  second=102 amount=-5  
kerning first=84  second=103 amount=-5  
kerning first=84  second=106 amount=-4  
kerning first=84  second=109 amount=-4  
kerning first=84  second=110 amount=-5  
kerning first=84  second=111 amount=-6  
kerning first=84  second=112 amount=-6  
kerning first=84  second=113 amount=-5  
kerning first=84  second=114 amount=-4  
kerning first=84  second=115 amount=-10 
kerning first=84  second=117 amount=-5  
kerning first=84  second=118 amount=-5  
kerning first=84  second=119 amount=-5  
kerning first=84  second=120 amount=-5  
kerning first=84  second=121 amount=-5  
kerning first=84  second=122 amount=-4  
kerning first=86  second=67  amount=-2  
kerning first=86  second=69  amount=-2  
kerning first=86  second=70  amount=-1  
kerning first=86  second=79  amount=-2  
kerning first=86  second=81  amount=-3  
kerning first=86  second=83  amount=-6  
kerning first=86  second=97  amount=-5  
kerning first=86  second=99  amount=-4  
kerning first=86  second=100 amount=-4  
kerning first=86  second=101 amount=-4  
kerning first=86  second=102 amount=-4  
kerning first=86  second=103 amount=-4  
kerning first=86  second=106 amount=-3  
kerning first=86  second=109 amount=-4  
kerning first=86  second=110 amount=-4  
kerning first=86  second=111 amount=-4  
kerning first=86  second=112 amount=-3  
kerning first=86  second=113 amount=-4  
kerning first=86  second=114 amount=-4  
kerning first=86  second=115 amount=-7  
kerning first=86  second=117 amount=-2  
kerning first=121 second=115 amount=-5  
kerning first=121 second=114 amount=-1  
kerning first=121 second=113 amount=-1  
kerning first=121 second=111 amount=-1  
kerning first=121 second=110 amount=-2  
kerning first=121 second=109 amount=-1  
kerning first=121 second=103 amount=-2  
kerning first=121 second=102 amount=-1  
kerning first=121 second=101 amount=-2  
kerning first=121 second=100 amount=-1  
kerning first=121 second=99  amount=-2  
kerning first=121 second=97  amount=-1  
kerning first=120 second=115 amount=-3  
kerning first=120 second=113 amount=-3  
kerning first=120 second=111 amount=-4  
kerning first=120 second=103 amount=-3  
kerning first=120 second=101 amount=-4  
kerning first=120 second=100 amount=-3  
kerning first=87  second=65  amount=-1  
kerning first=87  second=67  amount=-2  
kerning first=87  second=74  amount=-6  
kerning first=87  second=79  amount=-2  
kerning first=87  second=83  amount=-7  
kerning first=87  second=97  amount=-4  
kerning first=87  second=99  amount=-4  
kerning first=87  second=100 amount=-4  
kerning first=87  second=101 amount=-4  
kerning first=87  second=102 amount=-4  
kerning first=87  second=103 amount=-4  
kerning first=87  second=106 amount=-3  
kerning first=87  second=109 amount=-3  
kerning first=87  second=110 amount=-4  
kerning first=87  second=111 amount=-5  
kerning first=87  second=112 amount=-4  
kerning first=87  second=113 amount=-4  
kerning first=87  second=114 amount=-4  
kerning first=87  second=115 amount=-6  
kerning first=87  second=117 amount=-2  
kerning first=87  second=118 amount=-2  
kerning first=87  second=119 amount=-3  
kerning first=120 second=99  amount=-3  
kerning first=120 second=98  amount=-1  
kerning first=120 second=97  amount=-4  
kerning first=119 second=116 amount=1   
kerning first=119 second=115 amount=-4  
kerning first=119 second=114 amount=-2  
kerning first=119 second=113 amount=-2  
kerning first=119 second=112 amount=-1  
kerning first=119 second=111 amount=-2  
kerning first=119 second=109 amount=-2  
kerning first=119 second=107 amount=1   
kerning first=119 second=106 amount=-2  
kerning first=119 second=105 amount=1   
kerning first=119 second=104 amount=1   
kerning first=119 second=102 amount=-2  
kerning first=119 second=101 amount=-2  
kerning first=119 second=100 amount=-2  
kerning first=119 second=99  amount=-1  
kerning first=119 second=98  amount=1   
kerning first=88  second=67  amount=-2  
kerning first=88  second=79  amount=-3  
kerning first=88  second=81  amount=-4  
kerning first=88  second=97  amount=-2  
kerning first=88  second=99  amount=-2  
kerning first=88  second=100 amount=-2  
kerning first=88  second=111 amount=-2  
kerning first=88  second=113 amount=-3  
kerning first=88  second=118 amount=-4  
kerning first=88  second=119 amount=-4  
kerning first=88  second=121 amount=-4  
kerning first=89  second=67  amount=-2  
kerning first=89  second=79  amount=-4  
kerning first=89  second=81  amount=-4  
kerning first=89  second=83  amount=-9  
kerning first=89  second=97  amount=-8  
kerning first=89  second=99  amount=-6  
kerning first=89  second=100 amount=-6  
kerning first=89  second=101 amount=-7  
kerning first=89  second=102 amount=-6  
kerning first=89  second=103 amount=-7  
kerning first=89  second=105 amount=-2  
kerning first=89  second=106 amount=-4  
kerning first=89  second=109 amount=-5  
kerning first=89  second=110 amount=-6  
kerning first=89  second=111 amount=-8  
kerning first=89  second=112 amount=-6  
kerning first=89  second=113 amount=-6  
kerning first=89  second=114 amount=-5  
kerning first=89  second=115 amount=-9  
kerning first=89  second=117 amount=-4  
kerning first=89  second=118 amount=-5  
kerning first=89  second=119 amount=-5  
kerning first=89  second=120 amount=-5  
kerning first=89  second=121 amount=-5  
kerning first=89  second=122 amount=-3  
kerning first=119 second=97  amount=-2  
kerning first=118 second=115 amount=-8  
kerning first=118 second=114 amount=-3  
kerning first=118 second=113 amount=-2  
kerning first=118 second=112 amount=-2  
kerning first=118 second=111 amount=-2  
kerning first=118 second=110 amount=-2  
kerning first=118 second=109 amount=-2  
kerning first=118 second=106 amount=-3  
kerning first=118 second=103 amount=-2  
kerning first=118 second=102 amount=-2  
kerning first=118 second=101 amount=-2  
kerning first=118 second=100 amount=-2  
kerning first=118 second=99  amount=-2  
kerning first=116 second=121 amount=-3  
kerning first=116 second=119 amount=-3  
kerning first=116 second=118 amount=-2  
kerning first=115 second=115 amount=-6  
kerning first=114 second=115 amount=-5  
kerning first=112 second=119 amount=-2  
kerning first=112 second=118 amount=-2  
kerning first=90  second=118 amount=-3  
kerning first=90  second=119 amount=-3  
kerning first=90  second=121 amount=-2  
kerning first=55  second=52  amount=-8  
kerning first=97  second=118 amount=-2  
kerning first=97  second=121 amount=-2  
kerning first=98  second=118 amount=-2  
kerning first=98  second=119 amount=-2  
kerning first=98  second=120 amount=-2  
kerning first=98  second=121 amount=-2  
kerning first=104 second=115 amount=-3  
kerning first=105 second=118 amount=-2  
kerning first=107 second=98  amount=1   
kerning first=107 second=99  amount=-1  
kerning first=107 second=100 amount=-1  
kerning first=107 second=101 amount=-1  
kerning first=107 second=103 amount=-2  
kerning first=107 second=111 amount=-1  
kerning first=107 second=113 amount=-1  
kerning first=111 second=115 amount=-1  
kerning first=111 second=118 amount=-4  
kerning first=111 second=119 amount=-3  
kerning first=111 second=120 amount=-3  
kerning first=111 second=121 amount=-2  
